%YAML 1.1
%TAG !u! tag:unity3d.com,2011:
--- !u!114 &11400000
MonoBehaviour:
  m_ObjectHideFlags: 0
  m_CorrespondingSourceObject: {fileID: 0}
  m_PrefabInstance: {fileID: 0}
  m_PrefabAsset: {fileID: 0}
  m_GameObject: {fileID: 0}
  m_Enabled: 1
  m_EditorHideFlags: 0
  m_Script: {fileID: 11500000, guid: faa11ec82e9746928e211e7f096812ca, type: 3}
  m_Name: Settings
  m_EditorClassIdentifier: 
  gameAnalyticsIosGameKey: cfdce37dde1ce5ce2a33953083f0561f
  gameAnalyticsIosSecretKey: 1231784f54b429b7e76ee8dc023daddafd4e6ba5
  gameAnalyticsAndroidGameKey: 
  gameAnalyticsAndroidSecretKey: 
  facebookAppId: 3774490329245419
